…
With the `ig_get_followers()` function you can retrieve a `tbl_df` of
all the users that follow a particular user. Just provide the `user_id`
of the account whose followers you would like to get. **NOTE**: The
Instagram APIs use Ids to retrieve information so instead of giving the
account’s username (typically starting with an @symbol), you need to
first grab the `user_id` of that account using the username, then supply
it to the `ig_get_followers()` function.

``` r
# Get Justin's Biebers beliebers!
# Side Note: A belieber is a HUGE Justin Bieber fan.
bieber_user_id <- ig_get_user_id("justinbieber")
follower_results <- ig_get_followers(bieber_user_id)
follower_results
#> # A tibble: 2,197 x 9
#>         pk username full_name is_private profile_pic_url profile_pic_id
#>      <dbl> <chr>    <chr>     <lgl>      <chr>           <chr>         
#>  1 1.40e10 alapqia… ajsjdhsy… FALSE      https://sconte… 2053350554696…
#>  2 9.27e 9 kiuky_v… Ingrid V… FALSE      https://sconte… 2052430742269…
#>  3 7.09e 9 princes… Q̠u̠e̠e̠…     FALSE      https://sconte… 1952596379109…
#>  4 7.18e 9 george_… Γιώργος … TRUE       https://sconte… 2011239000690…
#>  5 6.64e 9 karimam… Karim Am… FALSE      https://sconte… 1943216958914…
#>  6 2.90e 9 jadenha… Jaden Ha… FALSE      https://sconte… 1971643469832…
#>  7 2.16e 9 firas.z… Firas Zo… FALSE      https://sconte… 2049697144525…
#>  8 1.70e 7 tiffany… ""        FALSE      https://sconte… 2034626485068…
#>  9 1.42e10 bibane51 sheraz    FALSE      https://sconte… <NA>          
#> 10 1.42e10 sss_._9… sahar     FALSE      https://sconte… <NA>          
#> # … with 2,187 more rows, and 3 more variables: is_verified <lgl>,
#> #   has_anonymous_profile_picture <lgl>, latest_reel_media <int>
```
…
``` r
# return all 100M+ followers of Justin Bieber
follower_results <- ig_get_followers(bieber_user_id, max_pages = Inf)
```

### Get Following

With the `ig_get_following()` function you can retrieve a `tbl_df` of
all the users that a particular user is following. For example, Justin
Bieber follows \~100 users. Who are those lucky few?

``` r
following_results <- ig_get_following(bieber_user_id)
following_results
#> # A tibble: 181 x 10
#>         pk username full_name is_private profile_pic_url profile_pic_id
#>      <dbl> <chr>    <chr>     <lgl>      <chr>           <chr>         
#>  1 2.69e 8 zachcla… Zach Cla… FALSE      https://sconte… 2048480207787…
#>  2 2.16e 8 officia… Brandon … FALSE      https://sconte… 2027136821162…
#>  3 2.91e 7 nickcan… NICK CAN… FALSE      https://sconte… 1896844691930…
#>  4 4.28e 7 bertsho… Bert Wei… FALSE      https://sconte… <NA>          
#>  5 5.50e 8 benjami… Business… FALSE      https://sconte… 2028127917154…
#>  6 1.89e 8 nickjon… Nick Jon… FALSE      https://sconte… 2041658194653…
#>  7 8.01e 9 lalalal… LISA      FALSE      https://sconte… 2017225651148…
#>  8 1.86e 8 teddysp… Ed Sheer… FALSE      https://sconte… 2050041949683…
#>  9 1.11e10 hdwg1    ""        TRUE       https://instag… <NA>          
#> 10 2.98e 7 kriskli… Kristin … FALSE      https://sconte… 1698661949418…
#> # … with 171 more rows, and 4 more variables: is_verified <lgl>,
#> #   has_anonymous_profile_picture <lgl>, latest_reel_media <int>,
#> #   is_favorite <lgl>
```
…
