An Implementation of the 'Instagram' API Using Tidy Principles • Rinstapkg
…
Get Followers

With the ig_get_followers() function you can retrieve a tbl_df of all the users that follow a particular user. Just provide the user_id of the account whose followers you would like to get. NOTE: The Instagram APIs use Ids to retrieve information so instead of giving the account’s username (typically starting with an @symbol), you need to first grab the user_id of that account using the username, then supply it to the ig_get_followers() function.

# Get Justin's Biebers beliebers!
# Side Note: A belieber is a HUGE Justin Bieber fan.
bieber_user_id <- ig_get_user_id("justinbieber")
follower_results <- ig_get_followers(bieber_user_id)
follower_results
#> # A tibble: 2,197 x 9
#>         pk username full_name is_private profile_pic_url profile_pic_id
#>      <dbl> <chr>    <chr>     <lgl>      <chr>           <chr>         
#>  1 1.37e10 damsixg… andrian   FALSE      https://sconte… 2044543432642…
#>  2 1.35e10 raj__ba… raj__bac… FALSE      https://sconte… 2046831711695…
#>  3 1.31e10 yankean… 𝙠𝙚𝙖𝙣 ♕ |… FALSE      https://sconte… 2032735087494…
#>  4 1.30e10 giulia.… BARBIE-M… FALSE      https://sconte… 2026263421285…
#>  5 1.11e10 moneyis… ""        FALSE      https://sconte… 2048815047194…
#>  6 8.64e 9 elsi_se… Elsi set… FALSE      https://sconte… 2047918159777…
#>  7 1.38e10 mohapat… R@#UL 8O… FALSE      https://sconte… 2051697476318…
#>  8 1.38e10 most_af… FAUCET D… FALSE      https://sconte… 2050606862086…
#>  9 8.66e 9 flame_a… FlameAgu… FALSE      https://sconte… 2047170428191…
#> 10 7.19e 9 katrinn… katrinno… FALSE      https://sconte… 2049228489917…
#> # … with 2,187 more rows, and 3 more variables: is_verified <lgl>,
#> #   has_anonymous_profile_picture <lgl>, latest_reel_media <int>

In the example above you’ll notice that we didn’t retrieve all 100M+ followers that Justin Bieber has. By default the function only returns the top 10 pages of followers, but you can set the max_pages argument equal to Inf to return all of them. Caution: This might take awhile!

# return all 100M+ followers of Justin Bieber
follower_results <- ig_get_followers(bieber_user_id, max_pages = Inf)

Get Following

With the ig_get_following() function you can retrieve a tbl_df of all the users that a particular user is following. For example, Justin Bieber follows ~100 users. Who are those lucky few?

following_results <- ig_get_following(bieber_user_id)
following_results
#> # A tibble: 181 x 10
#>         pk username full_name is_private profile_pic_url profile_pic_id
#>      <dbl> <chr>    <chr>     <lgl>      <chr>           <chr>         
#>  1 2.69e 8 zachcla… Zach Cla… FALSE      https://sconte… 2048480207787…
#>  2 2.16e 8 officia… Brandon … FALSE      https://sconte… 2027136821162…
#>  3 2.91e 7 nickcan… NICK CAN… FALSE      https://sconte… 1896844691930…
#>  4 4.28e 7 bertsho… Bert Wei… FALSE      https://sconte… <NA>          
#>  5 5.50e 8 benjami… Business… FALSE      https://sconte… 2028127917154…
#>  6 1.89e 8 nickjon… Nick Jon… FALSE      https://sconte… 2041658194653…
#>  7 8.01e 9 lalalal… LISA      FALSE      https://sconte… 2017225651148…
#>  8 1.86e 8 teddysp… Ed Sheer… FALSE      https://sconte… 2050041949683…
#>  9 1.11e10 hdwg1    ""        TRUE       https://sconte… <NA>          
#> 10 2.98e 7 kriskli… Kristin … FALSE      https://sconte… 1698661949418…
#> # … with 171 more rows, and 4 more variables: is_verified <lgl>,
#> #   has_anonymous_profile_picture <lgl>, latest_reel_media <int>,
#> #   is_favorite <lgl>
…
