Getting Started • Rinstapkg
…
Get Followers

With the ig_get_followers() function you can retrieve a tbl_df of all the users that follow a particular user. Just provide the user_id of the account whose followers you would like to get. NOTE: The Instagram APIs use Ids to retrieve information so instead of giving the account’s username (typically starting with an @symbol), you need to first grab the user_id of that account using the username, then supply it to the ig_get_followers() function.

# Get Justin's Biebers beliebers!
# Side Note: A belieber is a HUGE Justin Bieber fan.
bieber_user_id <- ig_get_user_id("justinbieber")
follower_results <- ig_get_followers(bieber_user_id)
follower_results
#> # A tibble: 2,194 x 9
#>         pk username full_name is_private profile_pic_url profile_pic_id
#>      <dbl> <chr>    <chr>     <lgl>      <chr>           <chr>         
#>  1 5.32e 9 badr_2k  Badr Ous… TRUE       https://sconte… 1827326814754…
#>  2 1.35e10 sarafin… Sarafina… TRUE       https://sconte… 2044340643782…
#>  3 1.36e10 plaseos  plase os  FALSE      https://sconte… 2046712673489…
#>  4 1.36e10 irmao_b… irmão be… FALSE      https://instag… <NA>          
#>  5 1.07e10 _techno… Techno+   FALSE      https://sconte… 1973159218895…
#>  6 6.77e 9 angga_f… Angga_fe… FALSE      https://sconte… 1927786585324…
#>  7 6.28e 9 raduand… Radu And… FALSE      https://sconte… 1992388180973…
#>  8 1.43e 9 isabell… ""        FALSE      https://sconte… 2046371762782…
#>  9 1.73e 9 iyongss  saturday… FALSE      https://sconte… 1978720564386…
#> 10 4.95e 8 chantel… ""        FALSE      https://sconte… 2026292769148…
#> # … with 2,184 more rows, and 3 more variables: is_verified <lgl>,
#> #   has_anonymous_profile_picture <lgl>, latest_reel_media <int>

In the example above you’ll notice that we didn’t retrieve all 100M+ followers that Justin Bieber has. By default the function only returns the top 10 pages of followers, but you can set the max_pages argument equal to Inf to return all of them. Caution: This might take awhile!

# return all 100M+ followers of Justin Bieber
follower_results <- ig_get_followers(bieber_user_id, max_pages = Inf)

Get Following

With the ig_get_following() function you can retrieve a tbl_df of all the users that a particular user is following. For example, Justin Bieber follows ~100 users. Who are those lucky few?

following_results <- ig_get_following(bieber_user_id)
following_results
#> # A tibble: 181 x 10
#>         pk username full_name is_private profile_pic_url profile_pic_id
#>      <dbl> <chr>    <chr>     <lgl>      <chr>           <chr>         
#>  1 2.69e 8 zachcla… Zach Cla… FALSE      https://sconte… 2034467612752…
#>  2 2.16e 8 officia… Brandon … FALSE      https://sconte… 2027136821162…
#>  3 2.91e 7 nickcan… NICK CAN… FALSE      https://sconte… 1896844691930…
#>  4 4.28e 7 bertsho… Bert Wei… FALSE      https://sconte… <NA>          
#>  5 5.50e 8 benjami… Business… FALSE      https://sconte… 2028127917154…
#>  6 1.89e 8 nickjon… Nick Jon… FALSE      https://sconte… 2041658194653…
#>  7 8.01e 9 lalalal… LISA      FALSE      https://sconte… 2017225651148…
#>  8 1.86e 8 teddysp… Ed Sheer… FALSE      https://sconte… 2040461491211…
#>  9 1.11e10 hdwg1    ""        TRUE       https://sconte… <NA>          
#> 10 2.98e 7 kriskli… Kristin … FALSE      https://sconte… 1698661949418…
#> # … with 171 more rows, and 4 more variables: is_verified <lgl>,
#> #   has_anonymous_profile_picture <lgl>, latest_reel_media <int>,
#> #   is_favorite <lgl>
…
